Entrega IV
…
cruce <- 
  aerolineas |>  #queremos COMPLETAR la tabla aerolineas con la información de vuelos
  left_join(vuelos |> select(carrier, arr_delay), by = "carrier")

cruce

# A tibble: 336,776 × 3
   carrier name              arr_delay
   <chr>   <chr>                 <dbl>
 1 9E      Endeavor Air Inc.        11
 2 9E      Endeavor Air Inc.        -2
 3 9E      Endeavor Air Inc.        -2
 4 9E      Endeavor Air Inc.        -1
 5 9E      Endeavor Air Inc.        -5
 6 9E      Endeavor Air Inc.        -5
 7 9E      Endeavor Air Inc.         5
 8 9E      Endeavor Air Inc.        13
 9 9E      Endeavor Air Inc.        -8
10 9E      Endeavor Air Inc.       -33
# ℹ 336,766 more rows
…
datos <-
  read_csv("https://raw.githubusercontent.com/zonination/perceptions/master/probly.csv")

Rows: 46 Columns: 17
── Column specification ────────────────────────────────────────────────────────
Delimiter: ","
dbl (17): Almost Certainly, Highly Likely, Very Good Chance, Probable, Likel...

ℹ Use `spec()` to retrieve the full column specification for this data.
ℹ Specify the column types or set `show_col_types = FALSE` to quiet this message.

datos

# A tibble: 46 × 17
   `Almost Certainly` `Highly Likely` `Very Good Chance` Probable Likely
                <dbl>           <dbl>              <dbl>    <dbl>  <dbl>
 1                 95              80                 85       75     66
 2                 95              75                 75       51     75
 3                 95              85                 85       70     75
 4                 95              85                 85       70     75
 5                 98              95                 80       70     70
 6                 95              99                 85       90     75
 7                 85              95                 65       80     40
 8                 97              95                 75       70     70
 9                 95              95                 80       70     65
10                 90              85                 90       70     75
# ℹ 36 more rows
# ℹ 12 more variables: Probably <dbl>, `We Believe` <dbl>,
#   `Better Than Even` <dbl>, `About Even` <dbl>, `We Doubt` <dbl>,
#   Improbable <dbl>, Unlikely <dbl>, `Probably Not` <dbl>,
#   `Little Chance` <dbl>, `Almost No Chance` <dbl>, `Highly Unlikely` <dbl>,
#   `Chances Are Slight` <dbl>

datos_tidy <-
  datos |> 
  pivot_longer(cols = c("Almost Certainly" :"Chances Are Slight"), names_to = "probability", values_to = "values")

datos_tidy

# A tibble: 782 × 2
   probability      values
   <chr>             <dbl>
 1 Almost Certainly     95
 2 Highly Likely        80
 3 Very Good Chance     85
 4 Probable             75
 5 Likely               66
 6 Probably             75
 7 We Believe           66
 8 Better Than Even     55
 9 About Even           50
10 We Doubt             40
# ℹ 772 more rows
…
