SOFTWARE II
…
[1] FALSE

🐣 Caso práctico

Incopora una nueva variable que represente la diferencia entre el peso del cerebro entre machos y hembras (machos - hembras) para cada especie.

Código

pinniped_tb$dif_m_f <- pinniped_tb$Male_brain_g - pinniped_tb$Female_brain_g
pinniped_tb

# A tibble: 33 × 8
   Species     Male_brain_g Female_brain_g Male_mass_Kg Female_mass_Kg Mate_type
   <chr>              <dbl>          <dbl>        <dbl>          <dbl> <chr>    
 1 Monachus s…         370             NA          173            272. mono     
 2 Monachus m…         480            480          260            275  mono     
 3 Mirounga a…         700            640         2275            488  poly     
 4 Mirounga l…        1431.           899.        3510            566. poly     
 5 Leptonycho…         535            638.         450            447  poly     
 6 Ommatophoc…         425            530          154.           164  mono     
 7 Lobodon ca…         578.           539.         220.           224  mono     
 8 Hydrurga l…         765            660          324            367  mono     
 9 Cystophora…         480            430          343.           222. mono     
10 Erignathus…          NA            460          312.           326  mono     
# ℹ 23 more rows
# ℹ 2 more variables: phoca <lgl>, dif_m_f <dbl>
…
Convierte a tidydata la base de datos realizando todas las opciones que consideres (consejo: usa papel y boli para bocetar como debería quedar la base de datos).

Un poco más de tidydata…

Del paquete {tidyr} usaremos el dataset world_bank_pop, que almacena la población de cada país y cada año, según el Banco Mundial. Convierte a tidydata

Código

world_bank_pop |> 
  pivot_longer(cols = "2000":"2017",
               names_to = "year",
               values_to = "pop",
               values_drop_na = TRUE)

# A tibble: 19,008 × 4
   country indicator   year    pop
   <chr>   <chr>       <chr> <dbl>
 1 ABW     SP.URB.TOTL 2000  41625
 2 ABW     SP.URB.TOTL 2001  42025
 3 ABW     SP.URB.TOTL 2002  42194
 4 ABW     SP.URB.TOTL 2003  42277
 5 ABW     SP.URB.TOTL 2004  42317
 6 ABW     SP.URB.TOTL 2005  42399
 7 ABW     SP.URB.TOTL 2006  42555
 8 ABW     SP.URB.TOTL 2007  42729
 9 ABW     SP.URB.TOTL 2008  42906
10 ABW     SP.URB.TOTL 2009  43079
# ℹ 18,998 more rows
…
exportado en .xlsx. Para ello nos basta con usar write.xlsx(objeto, file = ruta) del paquete {openxlsx}

library(openxlsx)
write.xlsx(tabla, file = "./datos/tabla_prueba.xlsx")

Desde web

Una de las principales ventajas de R es que podemos hacer uso de todas las funciones anteriores de importar pero directamente desde una web, sin necesidad de realizar la descarga manual: en lugar de pasarle la ruta local le indicaremos el enlace. Por ejemplo, vamos a descargar los datos de covid del ISCIII (https://cnecovid.isciii.es/covid19/#documentaci%C3%B3n-y-datos)

covid_datos <-
  read_csv(file = "https://cnecovid.isciii.es/covid19/resources/casos_hosp_uci_def_sexo_edad_provres.csv")
covid_datos

# A tibble: 700 × 8
   provincia_iso sexo  grupo_edad fecha      num_casos num_hosp num_uci num_def
   <chr>         <chr> <chr>      <date>         <dbl>    <dbl>   <dbl>   <dbl>
 1 A             H     0-9        2020-01-01         0        0       0       0
 2 A             H     10-19      2020-01-01         0        0       0       0
 3 A             H     20-29      2020-01-01         0        0       0       0
 4 A             H     30-39      2020-01-01         0        0       0       0
 5 A             H     40-49      2020-01-01         0        0       0       0
 6 A             H     50-59      2020-01-01         0        0       0       0
 7 A             H     60-69      2020-01-01         0        0       0       0
 8 A             H     70-79      2020-01-01         0        0       0       0
 9 A             H     80+        2020-01-01         0        0       0       0
10 A             H     NC         2020-01-01         0        0       0       0
# ℹ 690 more rows
…
library(climaemet)

# Definir la clave
apikey <- "eyJhbGciOiJIUzI1NiJ9.eyJzdWIiOiJqYXZhbHYwOUB1Y20uZXMiLCJqdGkiOiI4YTU1ODUxMS01MTE3LTQ4MTYtYmM4OS1hYmVkNDhiODBkYzkiLCJpc3MiOiJBRU1FVCIsImlhdCI6MTY2NjQ2OTcxNSwidXNlcklkIjoiOGE1NTg1MTEtNTExNy00ODE2LWJjODktYWJlZDQ4YjgwZGM5Iiwicm9sZSI6IiJ9.HEMR77lZy2ASjmOxJa8ppx2J8Za1IViurMX3p1reVBU"

aemet_api_key(apikey, install = TRUE, overwrite = TRUE)

Desde API (aemet)

Con dicho paquete podemos hacer una búsqueda de estaciones para conocer tanto su código postal como su código identificador dentro de la red AEMET

stations <- aemet_stations()
stations

# A tibble: 291 × 7
   indicativo indsinop nombre                 provincia altitud longitud latitud
   <chr>      <chr>    <chr>                  <chr>       <dbl>    <dbl>   <dbl>
 1 0252D      "08186"  ARENYS DE MAR          BARCELONA      74     2.54    41.6
 2 0076       "08181"  BARCELONA AEROPUERTO   BARCELONA       4     2.07    41.3
 3 0200E      ""       BARCELONA, FABRA       BARCELONA     408     2.12    41.4
 4 0201D      "08180"  BARCELONA              BARCELONA       6     2.2     41.4
 5 0149X      "08174"  MANRESA                BARCELONA     291     1.84    41.7
 6 0229I      "08192"  SABADELL AEROPUERTO    BARCELONA     146     2.10    41.5
 7 0255B      "08188"  SANTA SUSANNA          BARCELONA      40     2.70    41.7
 8 0367       "08184"  GIRONA AEROPUERTO      GIRONA        143     2.76    41.9
 9 0370B      ""       GIRONA, ANTIC INSTITUT GIRONA         95     2.83    42.0
10 0372C      "08120"  PORQUERES              GIRONA        157     2.76    42.1
# ℹ 281 more rows

Desde API (aemet)

Por ejemplo, la estación del aeropuerto de El Prat, Barcelona, es el código "0076"

aemet_last_obs("0076")

# A tibble: 23 × 23
   idema   lon fint                 prec   alt  vmax    vv    dv   lat  dmax
   <chr> <dbl> <dttm>              <dbl> <dbl> <dbl> <dbl> <dbl> <dbl> <dbl>
 1 0076   2.07 2023-09-28 15:00:00     0     4  11.8   8.7   240  41.3   240
 2 0076   2.07 2023-09-28 16:00:00     0     4  11.3   7.6   240  41.3   240
 3 0076   2.07 2023-09-28 17:00:00     0     4  10.8   8     250  41.3   250
 4 0076   2.07 2023-09-28 18:00:00     0     4  11.3   7.2   250  41.3   240
 5 0076   2.07 2023-09-28 19:00:00     0     4   9.3   5     260  41.3   250
 6 0076   2.07 2023-09-28 20:00:00     0     4   6.7   4.3   240  41.3   260
 7 0076   2.07 2023-09-28 21:00:00     0     4   7.2   5     240  41.3   250
 8 0076   2.07 2023-09-28 22:00:00     0     4   6.2   1.6   280  41.3   250
 9 0076   2.07 2023-09-28 23:00:00     0     4   5.7   4.1   270  41.3   260
10 0076   2.07 2023-09-29 00:00:00     0     4   4.6   2.2   320  41.3   290
# ℹ 13 more rows
# ℹ 13 more variables: ubi <chr>, pres <dbl>, hr <dbl>, stdvv <dbl>, ts <dbl>,
#   pres_nmar <dbl>, tamin <dbl>, ta <dbl>, tamax <dbl>, tpr <dbl>, vis <dbl>,
#   stddv <dbl>, inso <dbl>
…
Desde Spotify

Incluso podemos hacer un uso más complejo de las API y bajarnos datos de sitios como Twitter o Spotify (ver documentación en https://www.rcharlie.com/spotifyr/)

library(spotifyr)
Sys.setenv(SPOTIFY_CLIENT_ID = "79753b0500d34faaaef8673cc36bcf47")
Sys.setenv(SPOTIFY_CLIENT_SECRET = 'ca2955d430064ce5ba6a158a02a19772')
access_token <- get_spotify_access_token()

rosalia <- get_artist_audio_features("Rosalía")
as_tibble(rosalia)

# A tibble: 63 × 39
   artist_name artist_id     album_id album_type album_images album_release_date
   <chr>       <chr>         <chr>    <chr>      <list>       <chr>             
 1 ROSALÍA     7ltDVBr6mKbR… 3zbiiu3… album      <df [3 × 3]> 2022-09-09        
 2 ROSALÍA     7ltDVBr6mKbR… 3zbiiu3… album      <df [3 × 3]> 2022-09-09        
 3 ROSALÍA     7ltDVBr6mKbR… 3zbiiu3… album      <df [3 × 3]> 2022-09-09        
 4 ROSALÍA     7ltDVBr6mKbR… 3zbiiu3… album      <df [3 × 3]> 2022-09-09        
 5 ROSALÍA     7ltDVBr6mKbR… 3zbiiu3… album      <df [3 × 3]> 2022-09-09        
 6 ROSALÍA     7ltDVBr6mKbR… 3zbiiu3… album      <df [3 × 3]> 2022-09-09        
 7 ROSALÍA     7ltDVBr6mKbR… 3zbiiu3… album      <df [3 × 3]> 2022-09-09        
 8 ROSALÍA     7ltDVBr6mKbR… 3zbiiu3… album      <df [3 × 3]> 2022-09-09        
 9 ROSALÍA     7ltDVBr6mKbR… 3zbiiu3… album      <df [3 × 3]> 2022-09-09        
10 ROSALÍA     7ltDVBr6mKbR… 3zbiiu3… album      <df [3 × 3]> 2022-09-09        
# ℹ 53 more rows
# ℹ 33 more variables: album_release_year <dbl>,
#   album_release_date_precision <chr>, danceability <dbl>, energy <dbl>,
#   key <int>, loudness <dbl>, mode <int>, speechiness <dbl>,
#   acousticness <dbl>, instrumentalness <dbl>, liveness <dbl>, valence <dbl>,
#   tempo <dbl>, track_id <chr>, analysis_url <chr>, time_signature <int>,
#   artists <list>, available_markets <list>, disc_number <int>, …

Desde chess.com

Incluso puedes bajarte datos de ajedrez de plataformas como https://chess.com (y analizarlas)

# devtools::install_github("JaseZiv/chessR")
library(chessR)
library(chess)
chess_data <- get_raw_chessdotcom(usernames = "DadosDeLaplace", year_month = c(202301:202303))
tibble::as_tibble(chess_data)

# A tibble: 543 × 28
   GameRules TimeClass Event      Site      Date       Round White  Black Result
   <chr>     <chr>     <chr>      <chr>     <chr>      <chr> <chr>  <chr> <chr> 
 1 chess     blitz     Live Chess Chess.com 2023-01-01 -     Dados… an_o… 0-1   
 2 chess     blitz     Live Chess Chess.com 2023-01-01 -     birph… Dado… 1-0   
 3 chess     blitz     Live Chess Chess.com 2023-01-01 -     Miste… Dado… 0-1   
 4 chess     blitz     Live Chess Chess.com 2023-01-01 -     Dados… jmck… 1-0   
 5 chess     blitz     Live Chess Chess.com 2023-01-01 -     Dados… saur… 1-0   
 6 chess     blitz     Live Chess Chess.com 2023-01-01 -     Dados… gorr… 0-1   
 7 chess     blitz     Live Chess Chess.com 2023-01-01 -     CIA-S… Dado… 1-0   
 8 chess     blitz     Live Chess Chess.com 2023-01-01 -     Dados… wojm… 1-0   
 9 chess     blitz     Live Chess Chess.com 2023-01-01 -     Dados… DylB… 1-0   
10 chess     blitz     Live Chess Chess.com 2023-01-01 -     timmy… Dado… 1-0   
# ℹ 533 more rows
# ℹ 19 more variables: CurrentPosition <chr>, Timezone <chr>, ECO <chr>,
#   ECOUrl <chr>, UTCDate <chr>, UTCTime <chr>, WhiteElo <chr>, BlackElo <chr>,
#   TimeControl <chr>, Termination <chr>, StartTime <chr>, EndDate <chr>,
#   EndTime <chr>, Link <chr>, Moves <chr>, Username <chr>, Variant <chr>,
#   SetUp <chr>, FEN <chr>
…
